{"count":137,"page":1,"page_count":100,"page_size":100,"products":[{"brands":"Baby Mum Mum","categories":"Baby foods","code":"4710144809587","countries_tags":["en:australia"],"product_name":"Baby Mum-Mum vegetable","quantity":""},{"brands":"Little Bellies","categories":"Baby foods","code":"9337824002752","countries_tags":["en:australia"],"ecoscore_tags":["unknown"],"product_name":"Organic gingerbread man"},{"brands":"Macro","categories":"Baby foods","code":"9339687020942","countries_tags":["en:australia"],"ecoscore_tags":["unknown"],"product_name":"Baby Macro"},{"brands":"Raffertys Garden","categories":"Baby foods","code":"9421901088415","countries_tags":["en:australia"],"ecoscore_tags":["unknown"],"product_name":"Banana Snack Bars","quantity":"128 g"},{"brands":"Little Bellies","categories":"Baby foods, Biscuits","code":"9337824002745","countries_tags":["en:australia"],"ecoscore_tags":["d"],"product_name":"Organic animal biscuit","quantity":""},{"brands":"Little Bellies","categories":"Baby foods","code":"9337824001991","countries_tags":["en:australia","en:malta"],"ecoscore_tags":["unknown"],"product_name":"Organic apple and cinnamon puff","quantity":"12g"},{"brands":"Raffertys Garden","categories":"Baby foods","code":"9421901088408","countries_tags":["en:australia"],"ecoscore_tags":["unknown"],"product_name":"Apple snack bars","quantity":"128 g"},{"brands":"Baby Mum Mum","categories":"Baby foods","code":"4710144809907","countries_tags":["en:australia"],"ecoscore_tags":["unknown"],"product_name":"Baby mum-mum premium rise rusks"},{"brands":"Only Organic","categories":"Baby foods","code":"9403145302595","countries_tags":["en:australia"],"product_name":"Banana and Apple baby puree"},{"brands":"Baby Bellies","categories":"Baby foods","code":"9337824001663","countries_tags":["en:australia"],"ecoscore_tags":["unknown"],"product_name":"Organic carrot puffs"},{"brands":"Heinz","categories":"Baby foods","code":"93657488","countries_tags":["en:australia"],"product_name":"HNZ FRUITY PEARS 110GM","quantity":"110 g"},{"brands":"Raffertys Garden, Rafferty’s Garden","categories":"Baby foods","code":"9421901088422","countries_tags":["en:australia"],"product_name":"Blueberry, Banana & apple snack bars","quantity":"128g (8bars)"},{"brands":"Baby Bellies","categories":"Snacks, Baby foods","code":"9337824002219","countries_tags":["en:australia"],"ecoscore_tags":["unknown"],"product_name":"Organic Banana Soft Corn","quantity":"8g"},{"brands":"Bellamy's","categories":"Baby foods","code":"9332045001874","countries_tags":["en:australia"],"ecoscore_tags":["unknown"],"product_name":"Baby rice with prebiotic (GOS)"},{"brands":"Rafferty's Garden","categories":"Baby foods","code":"9421901080020","countries_tags":["en:australia"],"ecoscore_tags":["unknown"],"product_name":"Raf swt/pot/car/apl 120g","quantity":"120 g"},{"brands":"Baby Bellies","categories":"Baby foods","code":"9337824002950","countries_tags":["en:australia"],"product_name":"Organic Banana Pick-up Sticks","quantity":"16 g"},{"brands":"Woolworths","categories":"Baby foods","code":"9339687021024","countries_tags":["en:australia"],"product_name":"Smiling Tums Pear Banana and Mango"},{"brands":"Rafferty's Garden","categories":"Baby foods","code":"9340156058977","countries_tags":["en:australia"],"ecoscore_tags":["unknown"],"product_name":"Pear and prune","quantity":"120 g"},{"brands":"Heinz","categories":"Baby food jar with vegetables from 4-6 months","code":"9300657132231","countries_tags":["en:australia"],"product_name":"Heinz bb food lamb pumpkin 170g","quantity":"170g"},{"brands":"Only Organic","categories":"From 8 months","code":"9403145304681","countries_tags":["en:australia","en:new-zealand"],"ecoscore_tags":["unknown"],"product_name":"Pasta bolognese","quantity":"170 g"},{"brands":"Heinz","categories":"Baby foods","code":"9300657160340","countries_tags":["en:australia"],"ecoscore_tags":["unknown"],"product_name":"HNZ VAN CUSTARD 120GM","quantity":"120g"},{"brands":"","categories":"Baby foods","code":"4061463968470","countries_tags":["en:australia"],"product_name":"Mamia Rice Puffs","quantity":"45 g"},{"brands":"Nestlé","categories":"Baby foods","code":"7613032605872","countries_tags":["en:australia"],"product_name":"Baby rice","quantity":"200g"},{"brands":"Kiddylicious","categories":"Baby foods","code":"5060040256138","countries_tags":["en:australia","en:spain"],"product_name":"Veggie straws","quantity":"12 g"},{"brands":"Nestlé","categories":"Cereals for babies","code":"7613036959988","countries_tags":["en:australia"],"product_name":"Cerelac","quantity":"200g"},{"brands":"Only organic","categories":"Baby foods","code":"9403145303714","countries_tags":["en:australia"],"ecoscore_tags":["unknown"],"product_name":"Banana Blueberry & Quinoa","quantity":"120g"},{"brands":"Nestlé","categories":"Baby foods","code":"7613036960014","countries_tags":["en:australia"],"product_name":"Nestle Cerelac"},{"brands":"Rafferty’s Garden","categories":"Baby foods","code":"9421901088064","countries_tags":["en:australia"],"product_name":"Raf apple, banana & peach 120g","quantity":"120g"},{"brands":"Karicare","categories":"Baby milks in powder","code":"9418783003094","countries_tags":["en:australia"],"product_name":"Gentle Nutrition Infant Formula 0-6 Months","quantity":"900 g"},{"brands":"Heinz","categories":"Snacks and desserts for babies","code":"9300657231767","countries_tags":["en:australia"],"ecoscore_tags":["unknown"],"product_name":"Little kids","quantity":"90g"},{"brands":"Only Organic","categories":"Baby foods","code":"9403145304384","countries_tags":["en:australia","en:france"],"product_name":"Bandana   biscotti"},{"brands":"Annabel Karmel","categories":"Frozen foods, Pasta dishes, Baby dishes","code":"9310761715923","countries_tags":["en:australia"],"product_name":"bolognese pasta bake","quantity":"200 g"},{"brands":"Rafferty's Garden","categories":"Baby foods","code":"9421901088309","countries_tags":["en:australia","en:france"],"product_name":"Banana Milk Rusks"},{"brands":"Rafferty's Garden","categories":"Baby foods","code":"9421901088491","countries_tags":["en:australia","en:france"],"product_name":"Rafferty's Strawberry Yogurt Button Snacks 28GM"},{"brands":"Heinz","categories":"Baby foods","code":"9300657130916","countries_tags":["en:australia"],"product_name":"Hnz Straw &van custard 120g","quantity":"120 g"},{"brands":"Rafferty's Garden","categories":"Baby foods","code":"9421901080303","countries_tags":["en:australia"],"product_name":"Chocolate custard"},{"brands":"Whole Kids","categories":"Baby foods","code":"9336269001818","countries_tags":["en:australia"],"ecoscore_tags":["unknown"],"product_name":"Miriam Espinosa","quantity":"120 g"},{"brands":"Nestlé","categories":"Mueslis, Cereals for babies","code":"7613036959957","countries_tags":["en:australia"],"ecoscore_tags":["b"],"product_name":"Multigrain with banana & apple","quantity":"200g"},{"brands":"Only Organic","categories":"Baby foods, Biscuits","code":"9403145302885","countries_tags":["en:australia","en:france"],"product_name":"Organic Teething Rusks 100G (12 Rusks)"},{"brands":"Rafferty's garden","categories":"Baby foods","code":"9340156084518","countries_tags":["en:australia"],"ecoscore_tags":["unknown"],"product_name":"Banana mini yoghurt drops","quantity":"8g"},{"brands":"Only Organic","categories":"Baby foods","code":"9403145304988","countries_tags":["en:australia","en:new-zealand"],"ecoscore_tags":["unknown"],"product_name":"Strawberry yoghurt rice cakes"},{"brands":"Rafferty's Garden","categories":"Baby foods","code":"9421901080051","countries_tags":["en:australia"],"product_name":"Raf Blubry, bana & apple 120g","quantity":"120g"},{"brands":"Rafferty's Garden","categories":"Baby foods","code":"9340156059042","countries_tags":["en:australia"],"ecoscore_tags":["unknown"],"product_name":"Raf Brown rice&pumpkin 120g","quantity":"120g"},{"brands":"Baby Bellies","categories":"Baby foods","code":"9337824003063","countries_tags":["en:australia"],"product_name":"Organic sweet potato pick-up sticks","quantity":"16 g"},{"brands":"Heinz","categories":"Baby foods","code":"93772020","countries_tags":["en:australia"],"product_name":"Pumpkin potato and beef baby food"},{"brands":"Rafferty's Garden","categories":"Baby foods","code":"9340156084044","countries_tags":["en:australia"],"ecoscore_tags":["unknown"],"product_name":"Tuna and Garden Vegetables"},{"brands":"Only Organic","categories":"Baby foods, Yogurts","code":"9403145303219","countries_tags":["en:australia"],"product_name":"Banana Berries & Yoghurt Brekkie","quantity":""},{"brands":"Macro","categories":"Baby foods","code":"9339687221691","countries_tags":["en:australia"],"product_name":"Vegetable lasagne","quantity":"120 g"},{"brands":"Little Bellies","categories":"Baby foods","code":"9337824003377","countries_tags":["en:australia"],"ecoscore_tags":["unknown"],"product_name":"Organic Banana Date & Oat Bars"},{"brands":"","categories":"Baby food jar with banana","code":"9340156092001","countries_tags":["en:australia"],"ecoscore_tags":["a"],"product_name":"Banana & mango custard","quantity":"120 g"},{"brands":"Only Organic","categories":"Vegetable dish for babies from 12 months with starch and meat","code":"9403145304230","countries_tags":["en:australia","en:new-zealand"],"product_name":"Vegetable chicken risotto","quantity":"220 g"},{"brands":"Nestlé","categories":"Milky cereal-based beverages","code":"9300605138094","countries_tags":["en:australia","en:united-states"],"ecoscore_tags":["a-plus"],"product_name":"Milo","quantity":"750 g"},{"brands":"NUTRICIA","categories":"Infant formulas, Health","code":"9418783009935","countries_tags":["en:australia"],"product_name":"Souvenaid","quantity":"Powder 360 g"},{"brands":"Only Organic","categories":"From 10 months","code":"9403145304650","countries_tags":["en:australia","en:new-zealand"],"ecoscore_tags":["unknown"],"product_name":"Mango, Chicken & Coconut rice","quantity":""},{"brands":"Heinz","categories":"Baby foods","code":"93657037","countries_tags":["en:australia"],"product_name":"HNZ bb food  APPLE 110g","quantity":"110g"},{"brands":"Danone","categories":"Infant formulas","code":"0707447609024","countries_tags":["en:australia"]},{"brands":"Baby Bellies","categories":"Snacks, Baby foods","code":"9337824002233","countries_tags":["en:australia"],"ecoscore_tags":["unknown"],"product_name":"Organic berry and apple softcorn","quantity":"8g"},{"brands":"Baby Bellies","categories":"Snacks, Baby foods","code":"9337824001670","countries_tags":["en:australia"],"ecoscore_tags":["unknown"],"product_name":"Organic blueberry puffs","quantity":"12g"},{"brands":"Baby Bellies, Little Bellies","categories":"Snacks, Baby foods","code":"9337824002271","countries_tags":["en:australia"],"ecoscore_tags":["unknown"],"product_name":"Organic Cheese & Herb fiddlesticks","quantity":"12g"},{"brands":"Woolworths","categories":"Baby foods","code":"9339687021017","countries_tags":["en:australia"],"ecoscore_tags":["unknown"],"product_name":"Smiling Tums Apple & Banana with Oats"},{"brands":"Baby Bellies","categories":"Baby foods","code":"9337824001908","countries_tags":["en:australia"],"ecoscore_tags":["unknown"],"product_name":"Organic sweetcorn round a bouts"},{"brands":"Rafferty's Garden","categories":"Baby foods","code":"9421901088071","countries_tags":["en:australia"],"product_name":"Raf pear & raspberries 120g","quantity":"120g"},{"brands":"Macro","categories":"Baby foods","code":"9300633394219","countries_tags":["en:australia"],"ecoscore_tags":["unknown"],"product_name":"Apple, banana & blueberry bircher muesli","quantity":"120 g"},{"brands":"Heinz","categories":"Baby foods","code":"93657723","countries_tags":["en:australia"],"ecoscore_tags":["unknown"],"product_name":"Little treats vanilla custard"},{"brands":"Only Organic","categories":"Baby foods","code":"9403145302601","countries_tags":["en:australia","en:france"],"product_name":"Only Organic Apple, Peach and Apricot Pouch 120G"},{"brands":"Rafferty's Garden","categories":"Plant-based foods, Baby foods","code":"9421901080082","countries_tags":["en:australia"],"ecoscore_tags":["unknown"],"product_name":"Raf Risoni & garden vege 170g","quantity":"170 g"},{"brands":"Rafferty's Garden","categories":"Baby foods","code":"9340156059028","countries_tags":["en:australia"],"product_name":"Raf Chckpea corn &carrot 120g","quantity":"120g"},{"brands":"Tamar Valley","categories":"Snacks, Baby foods, Yogurt drinks","code":"9310036045731","countries_tags":["en:australia"],"product_name":"Tamar Valley dairy KIDS blueberry","quantity":"170 g"},{"brands":"Rafferty's Garden","categories":"Baby foods","code":"9421901080013","countries_tags":["en:australia"],"product_name":"Apple, pear and cinnamon"},{"brands":"Rafferty's Garden","categories":"Baby foods","code":"9421901080006","countries_tags":["en:australia"],"product_name":"Raf Banana, pear&mango 120g","quantity":"120 g"},{"brands":"Woolworths","categories":"Baby foods","code":"9339687049196","countries_tags":["en:australia"],"ecoscore_tags":["unknown"],"product_name":"Smiling Tums Chicken and Vegetables"},{"brands":"Heinz","categories":"Baby foods","code":"9300657130886","countries_tags":["en:australia"],"product_name":"Mango & Vanilla Custard","quantity":"120g"},{"brands":"Only Organic","categories":"Baby foods","code":"9403145304957","countries_tags":["en:australia"],"ecoscore_tags":["unknown"],"product_name":"Blueberry & purple carrot rice cakes"},{"brands":"Rafferty's Garden","categories":"Baby foods","code":"9340156085003","countries_tags":["en:australia","en:france"]},{"brands":"Bellamy's","categories":"Baby foods","code":"9332045000280","countries_tags":["en:australia"],"product_name":"Organic Baby Porridge"},{"brands":"Only Organic","categories":"Baby foods","code":"9403145303448","countries_tags":["en:australia"],"ecoscore_tags":["unknown"],"product_name":"Wild Rice Risotto and Spring Lamb"},{"brands":"Only Organic","categories":"Baby foods","code":"9403145304568","countries_tags":["en:australia"],"ecoscore_tags":["unknown"],"product_name":"Kumara,carrot & coconut ricr"},{"brands":"Only Organic","categories":"Baby foods, Puffed rice cakes","code":"9403145304971","countries_tags":["en:australia"],"ecoscore_tags":["d"],"product_name":"Yoghurt Rice Cakes"},{"brands":"Macro","categories":"Baby foods","code":"9339687020973","countries_tags":["en:australia"],"ecoscore_tags":["unknown"],"product_name":"Apple, Berries & Fig with Yoghurt"},{"brands":"Rafferty's Garden","categories":"Baby foods","code":"9340156000648","countries_tags":["en:australia"],"ecoscore_tags":["unknown"],"product_name":"apple"},{"brands":"Whole Kids","categories":"Baby foods","code":"9336269002327","countries_tags":["en:australia"],"product_name":"Meltaway Sticks","quantity":"10 g"},{"brands":"Macro","categories":"Baby foods","code":"9339687020959","countries_tags":["en:australia"],"ecoscore_tags":["unknown"],"product_name":"Pear, pea, potato & spinach"},{"brands":"Nestlé","categories":"Baby foods","code":"7613036959711","countries_tags":["en:australia"],"product_name":"Cerelac","quantity":""},{"brands":"Heinz","categories":"Baby foods","code":"9300657131050","countries_tags":["en:australia"],"ecoscore_tags":["unknown"],"product_name":"Chicken, sweet corn & mango"},{"brands":"Baby Bellies","categories":"Baby foods","code":"9337824003056","countries_tags":["en:australia"],"product_name":"Organic strawberry pick-up sticks","quantity":"16 g"},{"brands":"Only Organic","categories":"Baby foods","code":"9403145304872","countries_tags":["en:australia"],"ecoscore_tags":["unknown"],"product_name":"Only organic"},{"brands":"Rafferty's Garden","categories":"Baby foods","code":"9340156000518","countries_tags":["en:australia"],"ecoscore_tags":["unknown"],"product_name":"Apple, pear & cinnamon porridge"},{"brands":"Only Organic","categories":"Baby foods","code":"9403145303172","countries_tags":["en:australia"],"product_name":"Vanilla custard"},{"brands":"Rafferty's Garden","categories":"Baby fruit desserts","code":"9421901080044","countries_tags":["en:australia","en:singapore"],"ecoscore_tags":["unknown"],"product_name":"Raf pump/apl/sw crn 120g","quantity":"120g"},{"brands":"Rafferty's Garden","categories":"Baby foods","code":"9421901088804","countries_tags":["en:australia"],"ecoscore_tags":["unknown"],"product_name":"Raf Beef&vegetable lasagne 170g","quantity":"170 g"},{"brands":"Heinz","categories":"Baby foods","code":"9300657161538","countries_tags":["en:australia"],"ecoscore_tags":["unknown"],"product_name":"Heinz bb food Apple & Oatmeal 170g","quantity":"170 grams"},{"brands":"Little Quacker","categories":"Baby foods","code":"9329521006072","countries_tags":["en:australia"],"ecoscore_tags":["unknown"],"product_name":"Little quackers"},{"brands":"Baby Bellies","categories":"Baby foods","code":"9337824002974","countries_tags":["en:australia"],"ecoscore_tags":["unknown"],"product_name":"Organic Carrot Puffs","quantity":"35 g"},{"brands":"Rafferty's Garden","categories":"Baby foods","code":"9421901080068","countries_tags":["en:australia"],"product_name":"Spinach Apple broccoli and pea","quantity":"120 g"},{"brands":"Heinz","categories":"Baby foods","code":"9300657130763","countries_tags":["en:australia"],"product_name":"smoothie pear betty & oat","quantity":"120 g"},{"brands":"Rafferty's Garden","categories":"Baby foods","code":"9340156058908","countries_tags":["en:australia"],"ecoscore_tags":["unknown"],"product_name":"Beef, sweet potato & parsnip","quantity":"120 g"},{"brands":"Only Organic","categories":"Baby foods","code":"9403145303202","countries_tags":["en:australia"],"product_name":"Only organic mango and yoghurt brekkie"},{"brands":"Rafferty's garden","categories":"Baby foods","code":"9340156000501","countries_tags":["en:australia"],"product_name":"Banana, Pear & mango porridge","quantity":"120 g"},{"brands":"Heinz","categories":"Baby foods","code":"9300657132484","countries_tags":["en:australia"],"ecoscore_tags":["unknown"],"product_name":"heinz tropical baby food"},{"brands":"Baby Bellies","categories":"Baby foods","code":"9337824003148","countries_tags":["en:australia"],"ecoscore_tags":["unknown"],"product_name":"Organic Smooth bowl banana, apple and oats"}],"skip":0}